{
	"updatedProposals": [{
			"proposedOrder": {
				"supplierOrderNumber": "7186360",
				"updateAttribute": "quantity",
				"updateValue": "6",
				"productCodePIN": "102444930",
				"orderNumber": "115796632170524",
				"actionIndicator": "amend"
			}
		},
		{
			"proposedOrder": {
				"supplierOrderNumber": "7186360",
				"updateAttribute": "quantity",
				"updateValue": "8",
				"productCodePIN": "102444930",	
				"orderNumber": "115796632169791",
				"actionIndicator": "amend"
			}
		},
		{
			"proposedOrder": {
				"supplierOrderNumber": "7186360",
				"updateAttribute": "addLine",
				"actionIndicator": "add",
				"orderNumber": "115796632179999",
				"productCodePIN": "108523444",
				"quantityCases": "70",
				"productCodeMIN": "108451452",
				"quantitySingles": "980",
				"OrderUOM": "CS",
				"packSize": "12.0"

			}
		}
	]
}
